{
	"id": 1,
	"userId":"1",
	"transactionDate":"June 12, 2023",
	"status":"pending",
	"total":1000
};

{
	"id": 2,
	"userId":"2",
	"transactionDate":"June 10, 2023",
	"status":"shipped",
	"total":500
};
